
		       GNU  $B0lHL8xM-;HMQ5vBz=q(J
		       =======================



		       1991 $BG/(J6 $B7n!$%P!<%8%g%s(J2

	Copyright (C) 1989,1991 Free Software Foundation, Inc.
		675 Mass Ave, Cambridge, MA 02139, USA



$B2??M$b!"0J2<$NFbMF$rJQ99$7$J$$$G$=$N$^$^J#<L$9$k>l9g$K8B$j!"K\;HMQ5vBz(J
$B=q$rJ#@=$7$?$jHRI[$9$k$3$H$,$G$-$^$9!#(J



$B$O$8$a$K(J
--------


$B$[$H$s$I$N%=%U%H%&%'%"$N;HMQ5vBz$O!"%=%U%H%&%'%"$r6&M-$7!"JQ99$9$k%f!<(J
$B%6$N<+M3$rC%$&$3$H$r0U?^$7$F$$$^$9!#$=$l$KBP$7$F!"2f!9$N(JGNU $B0lHL8xM-;H(J
$BMQ5vBz$O!"%U%j!<!&%=%U%H%&%'%"$r6&M-$7$?$jJQ99$9$k<+M3$r%f!<%6$KJ]>Z$9(J
$B$k$?$a$N$b$N!"B($A%U%j!<!&%=%U%H%&%'%"$,$=$N%f!<%6A4$F$K$H$C$F%U%j!<$G(J
$B$"$k$3$H$rJ]>Z$9$k$?$a$N$b$N$G$9!#K\;HMQ5vBz$O!"(JFree Software
Foundation $B$N$[$H$s$IA4$F$N%=%U%H%&%'%"$KE,MQ$5$l$k$@$1$G$J$/!"%W%m%0(J
$B%i%`$N:n@.<T$,K\;HMQ5vBz$K0M$k$H$7$?>l9g$N$=$N%W%m%0%i%`$K$bE,MQ$9$k$3(J
$B$H$,$G$-$^$9!#(J($B$=$NB>$N(JFree Software Foundation $B$N%=%U%H%&%'%"$N$$$/$D(J
$B$+$O!"K\5vBz=q$G$O$J$/!"(JGNU $B%i%$%V%i%j0lHL8xM-;HMQ5vBz$GJ]8n$5$l$^$9!#(J) 
$B$"$J$?$O<+J,$N%W%m%0%i%`$K$b$3$l$rE,MQ$G$-$^$9!#2f!9$,%U%j!<!&%=%U%H%&%'(J
$B%"$K$D$$$F8@$&>l9g$O<+M3$N$3$H$K8@5Z$7$F$$$k$N$G$"$C$F!"2A3J$N$3$H$G$O(J
$B$"$j$^$;$s!#2f!9$N0lHL8xM-;HMQ5vBz$N3F>r9`$O!"<!$N;vJA$r3N<B$K<B8=$9$k(J
$B$3$H$rL\E*$H$7$FN)0F$5$l$F$$$^$9!#(J

   $B!&(J $B%U%j!<!&%=%U%H%&%'%"$NJ#@=J*$r<+M3$KHRI[$G$-$k$3$H(J($B$=$7$F!"K>$`(J
      $B$J$i$"$J$?$N$3$N%5!<%S%9$KBP$7$FBP2A$r@A5a$G$-$k$3$H(J)$B!#(J

   $B!&(J $B%=!<%9!&%3!<%I$r<B:]$K<u$1<h$k$+!"$"$k$$$O!"4uK>$7$5$($9$l$P$=$l(J
      $B$rF~<j$9$k$3$H$,2DG=$G$"$k$3$H!#(J

   $B!&(J $BF~<j$7$?%=%U%H%&%'%"$rJQ99$7$?$j!"?7$7$$%U%j!<!&%W%m%0%i%`$N0lIt(J
      $B$H$7$F;HMQ$G$-$k$3$H!#(J

   $B!&(J $B0J>e$N3FFbMF$r9T$J$&$3$H$,$G$-$k$H$$$&$3$H$r%f!<%6<+?H$,CN$C$F$$(J
      $B$k$3$H!#(J

$B$3$N$h$&$J%f!<%6$N8"Mx$r<i$k$?$a$K!"2f!9$O!"2??M$b$3$l$i$N8"Mx$rH]Dj$7(J
$B$?$j!"$"$k$$$OJ|4~$9$k$h$&$K%f!<%6$K5a$a$k$3$H$O$G$-$J$$$H$$$&@)8B>r9`(J
$B$r@_$1$kI,MW$,$"$j$^$9!#$3$l$i$N@)8B>r9`$O!"%f!<%6$,!"%U%j!<!&%=%U%H%&%'(J
$B%"$NJ#@=J*$rHRI[$7$?$jJQ99$7$h$&$H$9$k>l9g$K$O!"$=$N%f!<%6<+?H$,<i$k$Y(J
$B$-5AL3$H$b$J$j$^$9!#Nc$($P!"$"$J$?$,%U%j!<!&%=%U%H%&%'%"$NJ#@=J*$rHRI[(J
$B$9$k>l9g!"M-=~$+L5=~$+$K$+$+$o$i$:!"$"$J$?$O<+J,$N;}$C$F$$$k8"Mx$rA4$F(J
$BAj<j$KM?$($J$1$l$P$J$j$^$;$s!#$"$J$?$O!"Aj<j$b$^$?%=!<%9!&%3!<%I$r<u$1(J
$B<h$C$?$jF~<j$G$-$k$H$$$&$3$H$rG'$a$J$1$l$P$J$j$^$;$s!#$5$i$K$"$J$?$O!"(J
$BH`$i$,<+J,$?$A$N8"Mx$rCN$k$h$&$K!"$3$l$i$N>r9`$rCN$i$7$a$J$1$l$P$J$j$^(J
$B$;$s!#(J

$B2f!9$O<!$N#2$D$NJ}K!$G%f!<%6$N8"Mx$r<i$j$^$9!#(J(1) $B%=%U%H%&%'%"$KCx:n8"(J
$B$r<gD%$7!"(J(2) $BK\;HMQ5vBz$N>r9`$N2<$G%=%U%H%&%'%"$rJ#@=!&HRI[!&JQ99$9$k(J
$B8"Mx$r%f!<%6$KM?$($^$9!#(J

$B$^$?!"3F:n@.<T$d2f!9<+?H$r<i$k$?$a$K!"K\%U%j!<!&%=%U%H%&%'%"$,L5J]>Z$G(J
$B$"$k$3$H$rA4$F$N?M!9$,N;2r$7$F$$$kI,MW$,$"$j$^$9!#$5$i$K!"B>$NC/$+$K$h$C(J
$B$FJQ99$5$l$?%=%U%H%&%'%"$,HRI[$5$l$?>l9g!"<uNN<T$O$=$N%=%U%H%&%'%"$,%*(J
$B%j%8%J%k!&%P!<%8%g%s$G$O$J$$$H$$$&$3$H$rCN$i$5$l$kI,MW$,$"$j$^$9!#$=$l(J
$B$O!"B>?M$N4XM?$K$h$C$F863+H/<T$KBP$9$kI>2A$,1F6A$5$l$J$$$h$&$K$9$k$?$a(J
$B$G$9!#(J

$B:G8e$K!"$I$N%U%j!<!&%W%m%0%i%`$b%=%U%H%&%'%"FC5v$K@d$($:6<$+$5$l$F$$$^(J
$B$9!#2f!9$O!"%U%j!<!&%W%m%0%i%`$N:FHRI[<T$,8D?ME*$KFC5v8"$r<hF@$7!";v<B(J
$B>e$=$N%W%m%0%i%`$r<+J,$N:b;:$K$7$F$7$^$&$H$$$&4m81$rHr$1$?$$$H4j$C$F$$(J
$B$^$9!#$3$l$rKI$0$?$a$K2f!9$O!"$$$:$l$NFC5v$b!"C/$G$b<+M3$K;HMQ$G$-$k$h(J
$B$&$K;HMQ5vBz$5$l$k$Y$-$+!"$"$k$$$O2??M$KBP$7$F$bA4$/;HMQ$5$;$J$$$+$N!"(J
$B$$$:$l$+$K$9$Y$-$G$"$k$3$H$rL@$i$+$K$7$F$-$^$7$?!#(J

  $BJ#<L!&HRI[!&JQ99$KBP$9$k@53N$J>r9`$H>r7o$r<!$K<($7$^$9!#(J



GNU $B0lHL8xM-;HMQ5vBz$N2<$G$NJ#@=!"HRI[!"JQ99$K4X$9$k>r9`$H>r7o(J
==============================================================


   1. $BK\;HMQ5vBz$O!"K\0lHL8xM-;HMQ5vBz$N3F>r9`$K=>$C$FHRI[$5$l$k$H$$$&(J 
    $BCx:n8"<T$+(J $B$i$N9pCNJ8$,I=<($5$l$F$$$k%W%m%0%i%`$d$=$NB>$N:n@.J*$K(J 
    $BE,MQ$5$l$^$9!#0J2<$K(J $B$*$$$F!V%W%m%0%i%`!W$H$O!"$=$N$h$&$J%W%m%0%i(J 
    $B%`$d:n@.J*$r;X$9$b$N$H$7!"$^$?!"!V%W%m%0%i%`@8@.J*!W$H$O!">e=R$7(J 
    $B$?!V%W%m%0%i%`!W<+?H!"$^$?$O!"Cx:n8"K!2<$K$*$1$kA4$F$NGI@8J*!($9(J 
    $B$J$o$A!"$=$N!V%W%m%0%i%`!W$NA4ItKt$O0lIt$r!"$=$N$^$^Kt$OJQ99$7$F!"(J 
    $B3n$D!?Kt$OB>$N8@8l$KJQ49$7$F!"FbIt$KAH$_9~$s$@:n@.J*$r0UL#$7$^$9!#(J 
    ($B0J2<!"8@8lJQ49$O!VJQ99!W$H$$$&MQ8l$NCf$KL5>r7o$K4^$^$l$k$b$N$H$7(J 
    $B$^$9!#(J)$BK\;HMQ5vBz$K$h$C$F5vBz$r<u$1$k<T$r!V$"$J$?!W$H8F$S$^$9!#(J

     $BJ#@=!"HRI[!"JQ990J30$N9T0Y$OK\;HMQ5vBz$NBP>]$H$7$^$;$s!#$=$l$i$O(J 
    $BK\;HMQ5vBz$NHO0O30$G$9!#!V%W%m%0%i%`!W$r<B9T$5$;$k9T0Y$K4X$7$F@)(J 
    $BLs$O$"$j$^$;$s!#!V%W%m%0%i%`!W$N=PNO$O!"(J( $B!V%W%m%0%i%`!W$r<B9T$5(J 
    $B$;$F:n@.$5$;$?$+$I$&$+$H$OL54X78$K(J) $B$=$NFbMF$,!V%W%m%0%i%`@8@.J*!W(J 
    $B$G$"$k>l9g$K8B$jK\;HMQ5vBz$NBP>]$H$J$j$^$9!#$3$l$,Ev$F$O$^$k$+$I(J 
    $B$&$+$O!"!V%W%m%0%i%`!W$,2?$r$9$k$b$N$+$K0M$j$^$9!#(J


   2. $B$"$J$?$O!"$I$N$h$&$JG^BN>e$XJ#@=$7$h$&$H$9$k>l9g$G$"$C$F$b!"F~<j(J 
    $B$7$?!V%W%m(J $B%0%i%`!W$N%=!<%9!&%3!<%I$r$=$N$^$^$NFbMF$GJ#<L$7$?>e$G(J 
    $BE,@5$JCx:n8"I=<($HJ](J $B>Z$NJ|4~$rL@3N!"3n$DE,@5$KIU5-$9$k>l9g$K8B$j!"(J 
    $BJ#@=Kt$OHRI[$9$k$3$H$,$G$-$^(J $B$9!#$=$N>l9g!"K\;HMQ5vBz5Z$SL5J]>Z$K(J 
    $B4X$9$k5-:\ItJ,$O!"A4$F85$N$^$^$N7A$GI=(J $B<($7$F$/$@$5$$!#$^$?!"!V%W(J 
    $B%m%0(J $B%i%`!W$NHRI[@h$KBP$7$F$O!"!V%W%m%0%i%`!W$H(J $B6&$KK\;HMQ5vBz=q(J 
    $B$N<L$7$rEO$7$F$/$@$5$$!#J#@=J*$N0z$-EO$7$KMW$9$k<BHq$O@A5a(J $B$9$k$3(J 
    $B$H$,$G$-$^$9!#$^$?!"$"$J$?FH<+$NJ]>Z$r9T$J$&>l9g$O$=$l$rM-=~$H$9(J 
    $B$k$3$H$,$G$-$^$9!#(J


   3. $B<!$N3F>r7o$rA4$FK~$?$7$F$$$k8B$j!"$"$J$?$O!"!V%W%m%0%i%`!WKt$O$=(J 
    $B$N0lItJ,$r(J $BJQ99$7$F!V%W%m%0%i%`@8@.J*!W$H$9$k$3$H$,$G$-!"$5$i$K!"(J 
    $BJQ99HG$d1&:n@.J*$r>e(J $B5-Bh(J 2 $B9`$K=>$C$FJ#@=Kt$OHRI[$9$k$3$H$b$G$-(J 
    $B$^$9!#(J

     (a) $B%U%!%$%k$rJQ99$7$?;]$H$=$NJQ99F|$H$r!"JQ99$7$?%U%!%$%k>e$KL@(J
         $B3N$KI=<($9$k$3$H!#(J

     (b) $BJQ99$7$?$+H]$+$rLd$o$:!"K^$=!V%W%m%0%i%`!WKt$O$=$N0lItJ,$rFb(J
         $BIt$KAH$_9~$s$G$$$k$+Kt$O$=$l$+$iGI@8$7$?@8@.J*$rHRI[$9$k>l9g(J
         $B$K$O!"$=$NA4BN$rK\;HMQ5vBz$N>r9`$K=>$C$FBh;0<T$XL5=~$G;HMQ5v(J
         $BBz$9$k$3$H!#(J

     (c) $BJQ99$7$?%W%m%0%i%`$,<B9T;~$KDL>o$NBPOCE*$JJ}K!$G%3%^%s%I$rFI(J
         $B$`$h$&$K$J$C(J $B$F$$$k$H$9$l$P!":G$bIaDL$NJ}K!$GBPOCE*$K$=$N%W%m(J
         $B%0%i%`$r<B9T$9$k;~$K!"<!$NFbMF$r<($9J88@$,%W%j%s%?$X0u;z$5$l(J
         $B$k$+!"0?$$$O2hLL$KI=<($5$l$k$3$H!#(J

         $B!&E,@Z$JCx:n8"I=<(!#(J
         $B!&L5J]>Z$G$"$k$3$H(J($B$"$J$?$,FH<+$KJ]>Z$9$k>l9g$O!"$=$N;](J)$B!#(J
         $B!&HRI[$r<u$1$k<T$b!"K\;HMQ5vBz$HF10l$N>r9`$K=>$C$F!V%W%m%0%i(J
	   $B%`!W$r:FHRI[$G$-$k$3$H!#(J
         $B!&HRI[$r<u$1$k<T$,K\;HMQ5vBz=q$N<L$7$r;2>H$9$kJ}K!!#(J

         ($BNc30$H$7$F!"!V%W%m%0%i%`!W<+BN$OBPOCE*$G$"$C$F$b5/F0;~$NJ88@(J
         $B$rDL>o$O0u;z$7$J$$$N$J$i$P!"$"$J$?$N!V%W%m%0%i%`@8@.J*!W$O$3(J
         $B$N$h$&$JJ88@$r0u;z$9$kI,MW$O$"$j$^$;$s!#(J)

     $B$3$l$i$NMW7o$OJQ99$5$l$?:n@.J*$K$bA4$FE,MQ$5$l$^$9!#$=$NJQ99HG$N(J 
    $B0?$kItJ,$,!V%W%m%0%i%`!W$NGI@8J*$G$O$J$/!"$7$+$b$=$l<+BNFHN)$G0[$J(J
    $B$k:n@.J*$@(J $B$H9gM}E*$K9M$($i$l$k>l9g!"$"$J$?$,$=$l$i$rJL$N:n@.J*$H(J
    $B$7$FHRI[$7(J $B$?;~$O!"K\;HMQ5vBz$H$=$N>r9`$O$=$l$i$NItJ,$K$OE,MQ$5$l(J
    $B$^$;$s!#$7(J $B$+$7!"$=$l$i$r!V%W%m%0%i%`@8@.J*!W$N0lIt$H$7$FHRI[$9$k(J
    $B>l9g$O!"A4(J $BBN$,K\;HMQ5vBz$N>r9`$K=>$C$FHRI[$5$l$J$1$l$P$J$i$:!";H(J
    $BMQ5vBz$r<u(J $B$1$kB>$NA4$F$N<T$KBP$9$k5vBz$b%W%m%0%i%`A4BN$K$o$?$C$F(J
    $BM?$($i$l$J(J $B$1$l$P$J$i$:!"7k2L$H$7$F!"C/$,=q$$$?$+$K$+$+$o$i$:!"A4(J
    $B$F$NItJ,$K(J $BK\;HMQ5vBz$,E,MQ$5$l$J$1$l$P$J$j$^$;$s!#(J

     $B$3$N$h$&$K!"K\>r9`$N0U?^$9$k$H$3$m$O!"40A4$K$"$J$?$K$h$C$F=q$+$l(J 
    $B$?:n@.J*$K$D$$$F!"8"Mx$rMW5a$7$?$j!"$"$J$?$H8"Mx4X78$rAh$&$3$H$G(J 
    $B$O$"$j$^$;$s!#$`$7$m$=$NL\E*$O!":n@.J*$,!V%W%m%0%i%`@8@.J*!W$G$"(J 
    $B$k>l9g$K$=$NGI@8J*$d=89gJ*$NHRI[$r5,@)$9$k$3$H$K$"$j$^$9!#(J

     $B$5$i$K!"!V%W%m%0%i%`!W(J($BKt$O!V%W%m%0%i%`@8@.J*!W(J) $B$H!V%W%m%0%i%`@8(J 
    $B@.J*!W$H$O$J$i$J$$B>$N%W%m%0%i%`$H$r!"C1$KJ]4I$dHRI[$N$?$a$KF10l(J 
    $B$NG^BN>e$K$^$H$a$F5-O?$7$?$H$7$F$b!"K\;HMQ5vBz$OB>$N%W%m%0%i%`$K(J 
    $B$OE,MQ$5$l$^$;$s!#(J


 4. $B$"$J$?$O!"0J2<$N$&$A$$$:$l$+(J1 $B$D$rK~$?$98B$j!">e5-Bh(J2 $B9`5Z$SBh(J3 $B9`(J
    $B$K=>$C$F!V%W%m%0%i%`!W(J($BKt$O!">e5-Bh(J3 $B9`$G8@5Z$7$F$$$k!V%W%m%0%i%`(J
    $B@8@.J*!W(J)$B$r%*%V%8%'%/%H!&%3!<%IKt$O<B9T2DG=$J7A<0$GJ#@=5Z$SHRI[$9(J
    $B$k$3$H$,$G$-$^$9!#(J

    (a) $BBP1~$9$k5!3#FI$_<h$j2DG=$J%=!<%9!&%3!<%I0l<0$r0l=o$K0z$-EO$9$3(J
        $B$H!#$=$N>l9g!"$=$N%=!<%9!&%3!<%I$N0z$-EO$7$O>e5-Bh(J2 $B9`5Z$SBh(J 3 
        $B9`$K=>$C$F!"DL>o%=%U%H%&%'%"$N8r49$KMQ$$$i$l$kG^BN$G9T$J$o$l$k(J
        $B$3$H!#(J

    (b) $B>/$J$/$H$b(J3 $BG/4V$NM-8z4|4V$rDj$a!"3n$D$=$N4|4VFb$G$"$l$PBP1~$9(J
        $B$k5!3#FI$_<h$j2DG=$J%=!<%9!&%3!<%I0l<0$NJ#@=$r!"%=!<%9HRI[$K4X(J
        $B$o$k<BHq0J>e$NBP2A$rMW5a$;$:$KDs6!$9$k;]!"5Z$S$=$N>l9g$K$O>e5-(J
        $BBh(J2 $B9`5Z$SBh(J3 $B9`$K=>$C$F!"DL>o%=%U%H%&%'%"$N8r49$KMQ$$$i$l$kG^(J
        $BBN$GDs6!$5$l$k;]$r5-:\$7$?=qLL$r!"Bh;0<T$K0l=o$K0z$-EO$9$3$H!#(J

    (c) $BBP1~$9$k%=!<%9!&%3!<%IHRI[$N?=$7=P$K:]$7$F!"$"$J$?$,F@$?>pJs$r(J
        $B0l=o$K0z$-EO$9$3$H!#(J($B$3$NA*Br;h$O!"1DMx$rL\E*$H$7$J$$HRI[$G$"$C(J
        $B$F!"3n$D$"$J$?$,>e5-$N(J (b) $B9`$K4p$E$$$F!"%*%V%8%'%/%H!&%3!<%I(J
        $B0?$$$O<B9T2DG=7A<0$N%W%m%0%i%`$7$+F~<j$7$F$$$J$$>l9g$K8B$jE,MQ(J
        $B$5$l$kA*Br9`L\$G$9!#(J)


    $B$J$*!"%=!<%9!&%3!<%I$H$O!"JQ99:n6H$KE,$7$?5-=R7A<0$r;X$7$^$9!#$^$?!"(J
    $B<B9T2DG=7A<0$N%U%!%$%k$KBP1~$9$k%=!<%9!&%3!<%I0l<0$H$O!"$=$l$K4^$^(J
    $B$l$kA4%b%8%e!<%k$KBP1~$9$kA4$F$N%=!<%9!&%3!<%I!"5Z$S$"$i$f$k4XO"$N(J
    $B%$%s%?%U%'!<%9Dj5A%U%!%$%k!"5Z$S<B9T$r2DG=$K$9$k%3%s%Q%$%k$H%$%s%9(J
    $B%H!<%k$N@)8f$K4X$9$k5-=R$r;X$7$^$9!#FCJL$JNc30$H$7$F!"<B9T2DG=$J%U%!(J
    $B%$%k$,F0:n$9$k%*%Z%l!<%F%#%s%0!&%7%9%F%`$N<gMW$J9=@.MWAG(J($B%3%s%Q%$(J
    $B%i!"%+!<%M%k$J$I(J) $B$H6&$K(J($B%=!<%9!&%3!<%IKt$O%P%$%J%j$N$I$A$i$+$G(J) 
    $BHRI[$5$l$F$$$k$b$N$K$D$$$F$O!"$=$N9=@.MWAG<+BN$,<B9T7A<0$KIU?o$7$F(J
    $B$$$J$$>l9g$K8B$j!"HRI[$5$l$k%=!<%9!&%3!<%I$K4^$a$kI,MW$O$"$j$^$;$s!#(J

    $B<B9T2DG=7A<0$^$?$O%*%V%8%'%/%H!&%3!<%I$NHRI[$,!";X<($5$l$?>l=j$+$i(J
    $B$NJ#@=$N$?$a$N%"%/%;%98"$NIjM?$G$"$k>l9g!"F1$8>l=j$+$i$N%=!<%9!&%3!<(J
    $B%I$NJ#@=$N$?$a$NF1Ey$J%"%/%;%98"$rIjM?$9$l$P!"$?$H$(Bh;0<T$K%*%V%8%'(J
    $B%/%H!&%3!<%I$H6&$K%=!<%9$NJ#@=$r6/$$$J$/$H$b!"%=!<%9!&%3!<%I$rHRI[(J
    $B$7$?$b$N$H$_$J$7$^$9!#(J


 5. $BK\;HMQ5vBz$,L@<(E*$K5vBz$7$F$$$k>l9g$r=|$-!"$"$J$?$O!"!V%W%m%0%i%`!W(J
    $B$rJ#@=!"JQ99!"%5%V%i%$%;%s%9!"HRI[$9$k$3$H$,$G$-$^$;$s!#K\;HMQ5vBz(J
    $B$K=>$o$:$K!V%W%m%0%i%`!W$rJ#@=!"JQ99!"%5%V%i%$%;%s%9!"HRI[$7$h$&$H(J
    $B$9$k9T0Y$O!"$=$l<+BN$,L58z$G$"$j!"3n$D!"K\;HMQ5vBz$,$"$J$?$K5vBz$7(J
    $B$F$$$k!V%W%m%0%i%`!W$N8"Mx$r<+F0E*$K>CLG$5$;$^$9!#$=$N>l9g!"K\;HMQ(J
    $B5vBz$K=>$C$F$"$J$?$+$iJ#@=J*$d$=$N8"Mx$rF@$F$$$kBh;0<T$O!"K\;HMQ5v(J
    $BBz$K40A4$K=>$C$F$$$k>l9g$K8B$j!"0zB3$-M-8z$J;HMQ8"8B$r;}$D$b$N$H$7(J
    $B$^$9!#(J


 6. $B$"$J$?$O$^$@F10U$N0u$H$7$F=pL>$7$F$$$J$$$N$G!"K\;HMQ5vBz$r<u$1F~$l(J
    $B$kI,MW$O$"$j$^$;$s!#$7$+$7!"$"$J$?$K!V%W%m%0%i%`!WKt$O$=$NGI@8J*$r(J
    $BJQ99Kt$O:FHRI[$9$k5v2D$rM?$($k$b$N$OK\;HMQ5vBz0J30$K$O$"$j$^$;$s!#(J
    $B$3$l$i$N9T0Y$O!"$"$J$?$,$b$7K\;HMQ5vBz$r<u$1F~$l$J$$$N$G$"$l$P!"K!(J
    $BN'$K$h$C$F6X$8$i$l$^$9!#=>$C$F!"$"$J$?$,!V%W%m%0%i%`!W(J($BKt$O!V%W%m(J
    $B%0%i%`@8@.J*!W(J) $B$NJQ99Kt$OHRI[$r9T$($P!"$=$l<+BN$G$"$J$?$OK\;HMQ5v(J
    $BBz$r<u$1F~$l!"3n$D!"!V%W%m%0%i%`!WKt$O$=$N!V%W%m%0%i%`@8@.J*!W$NJ#(J
    $B@=!"HRI[!"JQ99$K4X$9$k$3$l$i$N>r9`$H>r7o$NA4$F$r<u$1F~$l$?$3$H$r<((J
    $B$7$^$9!#(J


 7. $B$"$J$?$,!V%W%m%0%i%`!W(J($BKt$O$=$N!V%W%m%0%i%`@8@.J*!W(J) $B$r:FHRI[$9$k(J
    $B$H<+F0E*$K!"$=$N<uNN<T$O!"85$N;HMQ5vBz<T$+$i!"K\;HMQ5vBz$N>r9`$K=>$C(J
    $B$F!V%W%m%0%i%`!W$rJ#@=!"HRI[!"JQ99$9$k$3$H$rFbMF$H$9$k;HMQ5vBz$r<u(J
    $B$1$?$b$N$H$7$^$9!#$"$J$?$O!"<uNN<T$K5vBz$5$l$?8"Mx$N9T;H$K$D$$$F!"(J
    $B$5$i$K@)Ls$r2C$($k$3$H$O$G$-$^$;$s!#$"$J$?$K$O!"Bh;0<T$KK\;HMQ5vBz(J
    $B$N<u$1F~$l$r6/$$$k@UG$$O$"$j$^$;$s!#(J

 8. $B:[H==j$NH=7h!"Kt$OFC5v?/32$N?=$7N)$F!"Kt$O(J($BFC5vLdBj$K8B$i$J$$(J) $B2?(J
    $B$i$+$NM}M3$N7k2L$H$7$F!"$"$J$?$K2]$;$i$l$?>r7o$,K\;HMQ5vBz$HAjF~$l(J
    $B$J$$$b$N$G$"$C$?$H$7$F$b(J($B:[H==j$NL?Na!"7@Ls!"$=$NB>$K$h$k$b$N$G$"(J
    $B$l(J)$B!"K\;HMQ5vBz$N>r7o$,LH=|$5$l$k$b$N$G$O$"$j$^$;$s!#K\;HMQ5vBz$K(J
    $B$h$k@UL3$H!"$=$NB>$N2?$i$+$N4XO"@UL3$rF1;~$KK~$?$9BVMM$GHRI[$9$k$3(J
    $B$H$,$G$-$J$$$J$i$P!"$"$J$?$O!V%W%m%0%i%`!W$rA4$/HRI[$7$F$O$$$1$^$;(J
    $B$s!#Nc$($P!"FC5v8"$NFbMF$,!"$"$J$?$+$iD>@\Kt$O4V@\$KJ#@=$r<u$1<h$C(J
    $B$?A4$F$N?M$K;HMQNA$N$J$$%W%m%0%i%`$N:FHRI[$r5v$5$J$$$b$N$G$"$l$P!"(J
    $B$"$J$?$,$+$+$kFC5v>e$NMW@A$HK\;HMQ5vBz$NN>J}$rK~B-$5$;$kJ}K!$O!"(J
    $B!V%W%m%0%i%`!W$NHRI[$r40A4$KCGG0$9$k$3$H$@$1$G$9!#(J

    $BK\>r9`$N0?$kItJ,$,2?$i$+$NFCJL$J>u672<$GL58z$^$?$OE,MQIT2DG=$K$J$C(J
    $B$?>l9g!"K\>r9`$N$=$NB>$N;D$j$NItJ,$,E,MQ$5$l$k$h$&$K0U?^$5$l$F$*$j!"(J
    $B$^$?!"K\>r9`$OA4BN$H$7$F$=$NB>$N>u67$KEv$F$O$^$k$h$&$K0U?^$5$l$F$$(J
    $B$^$9!#(J

    $BK\>r9`$NL\E*$O!"FC5v$d$=$NB>$N:b;:8"$r?/32$7$?$j!"$=$N$h$&$J8"Mx$K(J
    $B4p$E$/<gD%$NBEEv@-$rAh$&$h$&$K$"$J$?$K4+$a$k$3$H$G$O$"$j$^$;$s!#K\(J
    $B>r9`$NM#0l$NL\E*$O!"%U%j!<!&%=%U%H%&%'%"$NHRI[%7%9%F%`$N40A4@-$r<i(J
    $B$k$3$H$G!"$=$l$O8xM-;HMQ5vBz$N<BA)$K$h$C$FMz9T$5$l$^$9!#B?$/$N?M!9(J
    $B$,!"$3$N%7%9%F%`$N0l4S$7$?E,MQ$r?.Mj$7$F!"$3$N%7%9%F%`$rDL$8$FHRI[(J
    $B$5$l$F$$$kI}9-$$HO0O$N%=%U%H%&%'%"$K@K$7$_$J$$9W8%$r$7$F$/$l$^$7$?!#(J
    $B:n@.<T$d4sB#<T$,B>$N2?$i$+$N%7%9%F%`$rDL$8$F%=%U%H%&%'%"$rHRI[$7$?(J
    $B$$$H7h$a$k$3$H$OH`$i$N<+M30U;V$G$"$j!";HMQ5vBz$r<u$1$k<T$O$=$NA*Br(J
    $B$r6/$$$k$3$H$O$G$-$^$;$s!#(J

    $BK\>r9`$O!"K\;HMQ5vBz$NB>$N>r9`$N0UL#FbMF$,2?$G$"$k$+$r40A4$KL@$i$+(J
    $B$K$9$k$3$H$r0U?^$7$F$$$^$9!#(J


 9. $B!V%W%m%0%i%`!W$NHRI[!&;HMQ$,!"$"$k9q$K$*$$$FFC5vKt$OCx:n8"$GJ]8n$5(J
    $B$l$?%$%s%?%U%'!<%9$N$I$A$i$+$G@)8B$5$l$k>l9g!"!V%W%m%0%i%`!W$rK\;H(J
    $BMQ5vBz2<$K$*$$$?86Cx:n8"J];}<T$O!"$=$N9q$r=|30$9$k;]$NL@<(E*$JHRI[(J
    $BCO0h@)8B$r2C$(!"$=$l0J30$N(J($B=|30$5$l$J$$(J) $B9q$K8BDj$7$FHRI[$,5v$5$l(J
    $B$k$h$&$K$9$k$3$H$,$G$-$^$9!#$=$N$h$&$J>l9g!"$=$N@)8B$rK\;HMQ5vBz$N(J
    $BK\J8$K$"$?$+$b=q$+$l$F$$$k$+$N$h$&$KK\;HMQ5vBz$NCf$KAH$_F~$l$i$l$k(J
    $B$b$N$H$7$^$9!#(J

10. Free Software Foundation $B$O?o;~!"K\0lHL8xM-;HMQ5vBz$N2~D{HG!"Kt$O(J
    $B?7HG$r8xI=$9$k$3$H$,$"$j$^$9!#$=$N$h$&$J?7$7$$%P!<%8%g%s$O!"8=9T$N(J
    $B%P!<%8%g%s$H4pK\E*$KJQ$o$k$H$3$m$O$"$j$^$;$s$,!"?7$7$$LdBj$d7|0F;v(J
    $B9`$KBP1~$9$k$?$a$K:YIt$G$O0[$J$k$+$b$7$l$^$;$s!#(J

    $B3F%P!<%8%g%s$O!"%P!<%8%g%sHV9f$K$h$C$F6hJL$7$^$9!#!V%W%m%0%i%`!WCf(J
    $B$KK\;HMQ5vBz$N%P!<%8%g%sHV9f$N;XDj$,$"$k>l9g$O!"$=$N;XDj$5$l$?%P!<(J
    $B%8%g%s$+!"Kt$O$=$N8e$K(J Free Software Foundation $B$+$i8xI=$5$l$F$$$k(J
    $B$$$:$l$+$N%P!<%8%g%s$+$i(J1 $B$D$rA*Br$7$F!"$=$N>r9`$H>r7o$K=>$C$F$/$@(J
    $B$5$$!#!V%W%m%0%i%`!WCf$KK\;HMQ5vBz$N%P!<%8%g%sHV9f$N;XDj$,$J$$>l9g(J
    $B$O!"(JFree Software Foundation $B$,8xI=$7$?$I$N%P!<%8%g%s$G$bA*Br$9$k(J
    $B$3$H$,$G$-$^$9!#(J


11. $B!V%W%m%0%i%`!W$N0lIt$rHRI[>r7o$N0[$J$kB>$N%U%j!<!&%W%m%0%i%`$KAH$_(J
    $B9~$_$?$$>l9g$O!"$=$N3+H/<T$K=qLL$G5v2D$r5a$a$F$/$@$5$$!#(JFree
    Software Foundation $B$,Cx:n8"$r;}$C$F$$$k%=%U%H%&%'%"$K$D$$$F$O!"(J
    Free Software Foundation $B$X=qLL$rDs=P$7$F$/$@$5$$!#$3$N$h$&$J>l9g(J
    $B$KBP1~$9$k$?$a$K2f!9$ONc30E*=hM}$r$9$k$3$H$b$"$j$^$9$,!"$=$NH=CG4p(J
    $B=`$H$J$k$N$O!"<!$N(J2 $B$D$NL\I8$N<B8=$K9gCW$9$k$+H]$+$H$$$&E@$G$9!#B((J
    $B$A!"#1$D$O2f!9$N%U%j!<!&%=%U%H%&%'%"$NA4$F$NGI@8J*$r%U%j!<$J>uBV$K(J
    $BJ]$D$3$H$G$"$j!"$b$&#1$D$O%=%U%H%&%'%"$N6&M-$H:FMxMQ$H$r9-$/B%?J$5(J
    $B$;$k$3$H$G$9!#(J


    $BL5J]>Z(J
    ------


12. $B!V%W%m%0%i%`!W$OL5=~$G;HMQ5vBz$5$l$^$9$N$G!"E,MQK!Na$NHO0OFb$G!"(J
    $B!V%W%m%0%i%`!W$NJ]>Z$O0l@Z$"$j$^$;$s!#Cx:n8"<T$d$=$NB>$NBh;0<T$OA4(J
    $B$/L5J]>Z$G!V$=$N$^$^!W$N>uBV$G!"3n$D!"L@<($+0EL[$G$"$k$+$rLd$o$:0l(J
    $B@Z$NJ]>Z$r$D$1$J$$$GDs6!$9$k$b$N$H$7$^$9!#$3$3$G$$$&J]>Z$H$O!";T>l(J
    $B@-$dFCDjL\E*E,9g@-$K$D$$$F$N0EL[$NJ]>Z$b4^$^$l$^$9$,!"$=$l$K8BDj$5(J
    $B$l$k$b$N$G$O$"$j$^$;$s!#!V%W%m%0%i%`!W$NIJ<A$d@-G=$K4X$9$kA4$F$N%j(J
    $B%9%/$O$"$J$?$,Ii$&$b$N$H$7$^$9!#!V%W%m%0%i%`!W$K7g4Y$,$"$k$H$o$+$C(J
    $B$?>l9g!"$=$l$KH<$&0l@Z$NGI@8HqMQ$d=$M}!&D{@5$KMW$9$kHqMQ$OA4$F$"$J(J
    $B$?$NIiC4$H$7$^$9!#(J


13. $BE,MQK!Na$NDj$a!"Kt$O=qLL$K$h$k9g0U$,$"$k>l9g$r=|$-!"Cx:n8"<T$d>e5-(J
    $B5vBz$r<u$1$F!V%W%m%0%i%`!W$NJQ99!&:FHRI[$r0Y$7F@$kBh;0<T$O!"!V%W%m(J
    $B%0%i%`!W$r;HMQ$7$?$3$H!"$^$?$O;HMQ$G$-$J$$$3$H$K5/0x$9$k0l@Z$NB;32(J
    $B$K$D$$$F2?$i$N@UG$$bIi$$$^$;$s!#Cx:n8"<T$dA05-$NBh;0<T$,!"$=$N$h$&(J
    $B$JB;32$NH/@8$9$k2DG=@-$K$D$$$FCN$i$5$l$F$$$?>l9g$G$bF1MM$G$9!#$J$*!"(J
    $B$3$3$G$$$&B;32$K$ODL>oB;32!"FCJLB;32!"6vH/B;32!"4V@\B;32$,4^$^$l$^(J
    $B$9(J($B%G!<%?$N>C<:!"Kt$O$=$N@53N$5$NAS<:!"$"$J$?$dBh;0<T$,Ho$C$?B;<:!"(J
    $BB>$N%W%m%0%i%`$H$N%$%s%?%U%'!<%9$NITE,9g2=!"Ey$b4^$^$l$^$9$,!"$3$l(J
    $B$K8BDj$5$l$k$b$N$G$O$"$j$^$;$s(J)$B!#(J


    $B0J>e(J



$BCm0U(J
****


$B1QJ8J8=q(J(GNU General Public Licence) $B$r@5<0J8=q$H$9$k!#$3$NOBJ8J8=q$O(J
$BJ[8n;N$N0U8+$r:N$jF~$l$F!"$G$-$k$@$1@53N$K1QJ8J8=q$rK]Lu$7$?$b$N$G$"$k(J
$B$,!"K!N'E*$KM-8z$J7@Ls=q$G$O$J$$!#(J



$BOBJ8J8=q<+BN$N:FG[I[$K4X$7$F(J
****************************


 $B$$$+$J$kG^BN$G$b<!$N>r7o$,$9$Y$FK~$?$5$l$F$$$k>l9g$K8B$j!"K\OBJ8J8=q(J
$B$r$=$N$^$^J#<L$7G[I[$9$k$3$H$r5v2D$9$k!#$^$?!"$"$J$?$OBh;0<T$KBP$7$FK\(J
$B5v2D9pCN$HF10l$N5v2D$rM?$($k>l9g$K8B$j!":FG[I[$9$k$3$H$,5v2D$5$l$F$$$^(J
$B$9!#(J

   $B!&<uNN!"G[I[$5$l$?%3%T!<$KCx:n8"I=<($*$h$SK\5vBz9pCN$,A0$b$C$F:\$;(J
     $B$i$l$F$$$k$3$H!#(J

   $B!&%3%T!<$N<uNN<T$,$5$i$K:FG[I[$9$k>l9g!"$=$NG[I[<T$,K\9pCN$HF1$85v(J
     $B2D$rM?$($F$$$k$3$H!#(J

   $B!&OBJ8J8=q$NK\J8$r2~JQ$7$J$$$3$H!#(J




$B$"$J$?$N?7$7$$%W%m%0%i%`$K$3$l$i$N>r9`$rE,MQ$9$kJ}K!(J
====================================================


$B$"$J$?$,?7$7$/%W%m%0%i%`$r:n@.$7!"$=$l$r8xMQ$K6!$7$?$$>l9g$O!"%W%m%0%i(J
$B%`$r%U%j!<!&%=%U%H%&%'%"$K$7$F!"A4$F$N?M!9$,0J>e$N3F>r9`$K=>$C$F$3$l$r(J
$B:FHRI[$dJQ99$r$9$k$3$H$,$G$-$k$h$&$K$9$k$N$,:GNI$NJ}K!$G$9!#(J


$B$=$&$9$k$?$a$K$O!"%W%m%0%i%`$K0J2<$NI=<($r$7$F$/$@$5$$!#$=$N>l9g!"L5J](J
$B>Z$G$"$k$H$$$&$3$H$r:G$b8z2LE*$KEA$($k$?$a$K!"%=!<%9!&%U%!%$%k$NKAF,$K(J
$B$=$NA4J8$rI=<($9$l$P:G$b0BA4$G$9$,!"$=$NB>$NJ}K!$GI=<($9$k>l9g$G$b!"(J
$B!VCx:n8"I=<(!W$HA4J8$rFI$_=P$90Y$N%"%I%l%9$X$N%]%$%s%?$@$1$O%U%!%$%k>e(J
$B$KI=<($7$F$*$$$F$/$@$5$$!#(J



     $B%W%m%0%i%`L>$H$I$s$JF0:n$r$9$k$b$N$+$K$D$$$F$N4JC1$J@bL@$N9T(J
     ------------------------------------------------------------
     Copyright (C) 19 $B!{!{G/!"Cx:n8"<TL>(J
                              ----------

     $BK\%W%m%0%i%`$O%U%j!<!&%=%U%H%&%'%"$G$9!#$"$J$?$O!"(JFree Software
     Foundation $B$,8xI=$7$?(JGNU $B0lHL8xM-;HMQ5vBz$N!V%P!<%8%g%s#2!W0?$$$O(J
     $B$=$l0J9_$N3F%P!<%8%g%s$NCf$+$i$$$:$l$+$rA*Br$7!"$=$N%P!<%8%g%s$,(J
     $BDj$a$k>r9`$K=>$C$FK\%W%m%0%i%`$r:FHRI[$^$?$OJQ99$9$k$3$H$,$G$-$^(J
     $B$9!#(J

     $BK\%W%m%0%i%`$OM-MQ$H$O;W$$$^$9$,!"HRI[$K$"$?$C$F$O!";T>l@-5Z$SFC(J
     $BDjL\E*E,9g@-$K$D$$$F$N0EL[$NJ]>Z$r4^$a$F!"$$$+$J$kJ]>Z$b9T$J$$$^(J
     $B$;$s!#>\:Y$K$D$$$F$O(JGNU $B0lHL8xM-;HMQ5vBz=q$r$*FI$_$/$@$5$$!#(J

     $B$"$J$?$O!"K\%W%m%0%i%`$H0l=o$K(JGNU $B0lHL8xM-;HMQ5vBz$N<L$7$r<u$1<h$C(J
     $B$F$$$k$O$:$G$9!#$=$&$G$J$$>l9g$O!"(JFree Software Foundation, Inc.,
     675 Mass Ave, Cambridge, MA 02139, USA $B$X<j;f$r=q$$$F$/$@$5$$!#(J


$B$^$?!"%f!<%6$,EE;R%a%$%k$d=q?.$G$"$J$?$HO"Mm$r$H$kJ}K!$K$D$$$F$N>pJs$b(J
$B=q$-E:$($F$/$@$5$$!#(J

$B%W%m%0%i%`$,BPOCE*$KF0:n$9$k>l9g$O!"BPOC%b!<%I$G5/F0$7$?;~$K<!$N$h$&$J(J
$BC;$$9pCNJ8$,I=<($5$l$k$h$&$K$7$F$/$@$5$$!#(J


     Gnomovision $B%P!<%8%g%s(J69$B!"(JCopyright (C) 19 $B!{!{G/Cx:n8"<TL>(J
                                                      ----------
     Gnomovision $B$O40A4$KL5J]>Z$G$9!#>\:Y$O(J show w $B$H%?%$%W$7$F$/$@$5(J
     $B$$!#$3$l$O%U%j!<!&%=%U%H%&%'%"$J$N$G!"FCDj$N>r7o$N2<$G$3$l$r:FHR(J
     $BI[$9$k$3$H$,$G$-$^$9!#>\:Y$O(J show c $B$H%?%$%W$7$F$/$@$5$$!#(J


$B>e5-$N(Jshow w $B$d(Jshow c $B$O3F!9!"K\0lHL8xM-;HMQ5vBz$N4XO"$9$kItJ,$rI=<($9(J
$B$k%3%^%s%I$r;X$7$^$9!#$b$A$m$s!"$"$J$?$,;H$&$3$l$i$N%3%^%s%I$O(Jshow w 
$B$d(Jshow c $B$H$$$C$?8F$SL>$G$J$/$F$b9=$$$^$;$s!#$5$i$K!"$=$l$i$N%3%^%s%I(J
$B$O$"$J$?$N%W%m%0%i%`$K9g$o$;$k0Y$K!"%^%&%9$G%/%j%C%/$7$?$j%a%K%e!<7A<0(J
$B$K$9$k$3$H$b$G$-$^$9!#(J


$B$^$?!"I,MW$HG'$a$?>l9g$K$O!"$"$J$?$N8[$$<g(J($B$"$J$?$,%W%m%0%i%^$H$7$FF/(J
$B$$$F$$$k>l9g(J) $B$d:_@R$9$k3X9;$+$i!"$=$N%W%m%0%i%`$KBP$9$k!VCx:n8"J|4~!W(J
$B$rG'$a$?=pL>F~$j$N=qLL$rF~<j$7$F$/$@$5$$!#$3$3$K$=$NJ8Nc$r:\$;$^$9!#L>(J
$BA0$OJQ$($F$/$@$5$$!#(J


     Yoyodyne, Inc. $B$O!"(JJames Hacker $B$,3+H/$7$?%W%m%0%i%`(J`Gnomovision'
     ($B%3%s%Q%$%i$K$D$J$2$k%W%m%0%i%`(J) $B$K$D$$$F$NCx:n8"K!>e$NA4$F$N8"Mx(J
     $B$rJ|4~$9$k!#(J


     Ty Coon $B$N=pL>(J, 1 April 1989
     --------------
     Ty Coon, $BI{<RD9(J



$BK\0lHL8xM-;HMQ5vBz$O!"$"$J$?$N%W%m%0%i%`$r:b;:8"$NBP>]$H$J$C$F$$$kB>$N(J
$B%W%m%0%i%`$KAH$_9~$`$3$H$OG'$a$F$$$^$;$s!#$"$J$?$N%W%m%0%i%`$,%5%V%k!<(J
$B%A%s!&%i%$%V%i%j$G$"$C$F!"$"$J$?$,$=$N%i%$%V%i%j$r:b;:8"$NBP>]$H$J$C$F(J
$B$$$kB>$N%"%W%j%1!<%7%g%s$H%j%s%/$5$;$k$3$H$K$h$C$F!"$5$i$KM-MQ$J$b$N$K(J
$B$7$h$&$H$9$k>l9g$K$O!"K\;HMQ5vBz=q$NBe$o$j$K!"(JGNU $B%i%$%V%i%j0lHL8xM-;H(J
$BMQ5vBz=q$K=>$C$F$/$@$5$$!#(J

------------------------------------------------------------
$Id: GPL-2j.txt,v 1.1 1999/02/01 14:41:49 kiyoka Exp $
